-- Merging decision tree log ---
manifest
ADDED from /Users/thejasree/Desktop/NewProject/android/app/src/main/AndroidManifest.xml:1:1-33:12
INJECTED from /Users/thejasree/Desktop/NewProject/android/app/src/main/AndroidManifest.xml:1:1-33:12
INJECTED from /Users/thejasree/Desktop/NewProject/android/app/src/main/AndroidManifest.xml:1:1-33:12
INJECTED from /Users/thejasree/Desktop/NewProject/android/app/src/main/AndroidManifest.xml:1:1-33:12
MERGED from [:@yyyyu_react-native-barcode] /Users/thejasree/Desktop/NewProject/node_modules/@yyyyu/react-native-barcode/android/build/intermediates/library_manifest/release/AndroidManifest.xml:2:1-9:12
MERGED from [:react-native-android-location-enabler] /Users/thejasree/Desktop/NewProject/node_modules/react-native-android-location-enabler/android/build/intermediates/library_manifest/release/AndroidManifest.xml:2:1-11:12
MERGED from [:react-native-maps] /Users/thejasree/Desktop/NewProject/node_modules/react-native-maps/lib/android/build/intermediates/library_manifest/release/AndroidManifest.xml:2:1-12:12
MERGED from [:@react-native-community_async-storage] /Users/thejasree/Desktop/NewProject/node_modules/@react-native-community/async-storage/android/build/intermediates/library_manifest/release/AndroidManifest.xml:2:1-9:12
MERGED from [:react-native-image-picker] /Users/thejasree/Desktop/NewProject/node_modules/react-native-image-picker/android/build/intermediates/library_manifest/release/AndroidManifest.xml:2:1-23:12
MERGED from [:react-native-vector-icons] /Users/thejasree/Desktop/NewProject/node_modules/react-native-vector-icons/android/build/intermediates/library_manifest/release/AndroidManifest.xml:2:1-11:12
MERGED from [:react-native-gesture-handler] /Users/thejasree/Desktop/NewProject/node_modules/react-native-gesture-handler/android/build/intermediates/library_manifest/release/AndroidManifest.xml:2:1-11:12
MERGED from [com.facebook.react:react-native:0.59.9] /Users/thejasree/.gradle/caches/transforms-2/files-2.1/38ec6b59de56259a5cafe73523d57b2d/AndroidManifest.xml:2:1-13:12
MERGED from [com.android.support:appcompat-v7:28.0.0] /Users/thejasree/.gradle/caches/transforms-2/files-2.1/5dde2ad7b6bc116c332e948e929e7019/AndroidManifest.xml:17:1-22:12
MERGED from [com.google.android.gms:play-services-maps:16.1.0] /Users/thejasree/.gradle/caches/transforms-2/files-2.1/e6137ab584aade54ddaec47ff4b76551/AndroidManifest.xml:17:1-38:12
MERGED from [com.otaliastudios:cameraview:2.0.0-beta04] /Users/thejasree/.gradle/caches/transforms-2/files-2.1/541f0c87ffd2967fb3d2d3d60c958762/AndroidManifest.xml:2:1-34:12
MERGED from [androidx.lifecycle:lifecycle-runtime:2.0.0] /Users/thejasree/.gradle/caches/transforms-2/files-2.1/a525ef0089c2f4e9a68ee8a6549d8378/AndroidManifest.xml:17:1-22:12
MERGED from [com.google.android.gms:play-services-location:16.0.0] /Users/thejasree/.gradle/caches/transforms-2/files-2.1/f577f02beba01d6bc74d005b1f60ead4/AndroidManifest.xml:2:1-9:12
MERGED from [com.google.maps.android:android-maps-utils:0.5] /Users/thejasree/.gradle/caches/transforms-2/files-2.1/4d71ced357eae170d4620d8923c433a5/AndroidManifest.xml:2:1-13:12
MERGED from [com.google.android.gms:play-services-base:16.0.1] /Users/thejasree/.gradle/caches/transforms-2/files-2.1/5462cffb375830686c646d9de27a6700/AndroidManifest.xml:17:1-29:12
MERGED from [com.google.android.gms:play-services-places-placereport:16.0.0] /Users/thejasree/.gradle/caches/transforms-2/files-2.1/e27def8aeaaba3235fb8bb55e46c7d6d/AndroidManifest.xml:17:1-24:12
MERGED from [com.google.android.gms:play-services-tasks:16.0.1] /Users/thejasree/.gradle/caches/transforms-2/files-2.1/c8d4b0bc0c482f026cf1c590fe4c6a85/AndroidManifest.xml:2:1-9:12
MERGED from [com.google.android.gms:play-services-basement:16.0.1] /Users/thejasree/.gradle/caches/transforms-2/files-2.1/649a90a8e2ee3424de3e1e62a693297d/AndroidManifest.xml:17:1-28:12
MERGED from [com.android.support:support-v4:26.1.0] /Users/thejasree/.gradle/caches/transforms-2/files-2.1/dfef7f0696a405fe4d998f1b65788fed/AndroidManifest.xml:17:1-31:12
MERGED from [com.android.support:support-fragment:28.0.0] /Users/thejasree/.gradle/caches/transforms-2/files-2.1/73a97bce6d5ef50ff8eec53e46673fab/AndroidManifest.xml:17:1-22:12
MERGED from [com.android.support:animated-vector-drawable:28.0.0] /Users/thejasree/.gradle/caches/transforms-2/files-2.1/d339e43d2c0ecb35c095b43658a92a76/AndroidManifest.xml:17:1-22:12
MERGED from [com.android.support:support-core-ui:28.0.0] /Users/thejasree/.gradle/caches/transforms-2/files-2.1/f29f4d11419de518cbbb3126271590df/AndroidManifest.xml:17:1-22:12
MERGED from [com.android.support:support-core-utils:28.0.0] /Users/thejasree/.gradle/caches/transforms-2/files-2.1/b05d6e3d4a7a239babdd2b6ab10f8be7/AndroidManifest.xml:17:1-22:12
MERGED from [com.android.support:support-vector-drawable:28.0.0] /Users/thejasree/.gradle/caches/transforms-2/files-2.1/cbb06c210f33c9b50baa6912c79a1325/AndroidManifest.xml:17:1-22:12
MERGED from [com.android.support:loader:28.0.0] /Users/thejasree/.gradle/caches/transforms-2/files-2.1/7d141593d1a02e91efd7f4773240d2e8/AndroidManifest.xml:17:1-22:12
MERGED from [com.android.support:viewpager:28.0.0] /Users/thejasree/.gradle/caches/transforms-2/files-2.1/ac08dbf1bd22bcf79aa05b02e7906a6a/AndroidManifest.xml:17:1-22:12
MERGED from [com.android.support:coordinatorlayout:28.0.0] /Users/thejasree/.gradle/caches/transforms-2/files-2.1/1fc6d137bbc421100412d7d6b76166d8/AndroidManifest.xml:17:1-22:12
MERGED from [com.android.support:drawerlayout:28.0.0] /Users/thejasree/.gradle/caches/transforms-2/files-2.1/62c5f5e4047be04c23a8d6c28b6abf63/AndroidManifest.xml:17:1-22:12
MERGED from [com.android.support:slidingpanelayout:28.0.0] /Users/thejasree/.gradle/caches/transforms-2/files-2.1/47242531df99a6ccdd2d707d17ac7e24/AndroidManifest.xml:17:1-22:12
MERGED from [com.android.support:customview:28.0.0] /Users/thejasree/.gradle/caches/transforms-2/files-2.1/d16c24c12291e5860569a554b1e72415/AndroidManifest.xml:17:1-22:12
MERGED from [com.android.support:swiperefreshlayout:28.0.0] /Users/thejasree/.gradle/caches/transforms-2/files-2.1/4a69ed85facc311024ed866cdc1ed8cd/AndroidManifest.xml:17:1-22:12
MERGED from [com.android.support:asynclayoutinflater:28.0.0] /Users/thejasree/.gradle/caches/transforms-2/files-2.1/918805d34540f97040867d20b5f8533a/AndroidManifest.xml:17:1-22:12
MERGED from [com.android.support:support-media-compat:26.1.0] /Users/thejasree/.gradle/caches/transforms-2/files-2.1/3577966440a326a216d52a210db77cd5/AndroidManifest.xml:17:1-31:12
MERGED from [com.android.support:support-compat:28.0.0] /Users/thejasree/.gradle/caches/transforms-2/files-2.1/45e9177e6ccc394fd130e6d80ac2e89b/AndroidManifest.xml:17:1-24:12
MERGED from [com.android.support:versionedparcelable:28.0.0] /Users/thejasree/.gradle/caches/transforms-2/files-2.1/b1693ad3735af0bf2a266648c57dc5d9/AndroidManifest.xml:17:1-25:12
MERGED from [com.android.support:cursoradapter:28.0.0] /Users/thejasree/.gradle/caches/transforms-2/files-2.1/4d383095530849676e90156e28faed5d/AndroidManifest.xml:17:1-22:12
MERGED from [android.arch.lifecycle:runtime:1.1.1] /Users/thejasree/.gradle/caches/transforms-2/files-2.1/0d03322a2ad6e6a57daeb6a994227bc2/AndroidManifest.xml:17:1-22:12
MERGED from [com.android.support:documentfile:28.0.0] /Users/thejasree/.gradle/caches/transforms-2/files-2.1/32558f6943fc0fd5bd1b9e11889bd47b/AndroidManifest.xml:17:1-22:12
MERGED from [com.android.support:localbroadcastmanager:28.0.0] /Users/thejasree/.gradle/caches/transforms-2/files-2.1/e447972b5ec3a338f0cdcdc6e142c6db/AndroidManifest.xml:17:1-22:12
MERGED from [com.android.support:print:28.0.0] /Users/thejasree/.gradle/caches/transforms-2/files-2.1/427d2135790b1bc44d48e78defcf7ec7/AndroidManifest.xml:17:1-22:12
MERGED from [android.arch.lifecycle:viewmodel:1.1.1] /Users/thejasree/.gradle/caches/transforms-2/files-2.1/8517181b3650d829633f0943f373e0fb/AndroidManifest.xml:17:1-22:12
MERGED from [android.arch.lifecycle:livedata:1.1.1] /Users/thejasree/.gradle/caches/transforms-2/files-2.1/5704837d4d8ad71481f5a1464083b766/AndroidManifest.xml:17:1-22:12
MERGED from [android.arch.lifecycle:livedata-core:1.1.1] /Users/thejasree/.gradle/caches/transforms-2/files-2.1/65481b4b18dbe28595027bb33fe35b6d/AndroidManifest.xml:17:1-22:12
MERGED from [android.arch.core:runtime:1.1.1] /Users/thejasree/.gradle/caches/transforms-2/files-2.1/6cbc68de527561f79890075ac4c30d35/AndroidManifest.xml:17:1-22:12
MERGED from [com.android.support:interpolator:28.0.0] /Users/thejasree/.gradle/caches/transforms-2/files-2.1/464291d26d546f84c30d877c4da0512a/AndroidManifest.xml:17:1-22:12
MERGED from [com.facebook.fresco:fresco:1.10.0] /Users/thejasree/.gradle/caches/transforms-2/files-2.1/0597adddeb0fa5c682a20edee270ec83/AndroidManifest.xml:2:1-9:12
MERGED from [com.facebook.fresco:imagepipeline-okhttp3:1.10.0] /Users/thejasree/.gradle/caches/transforms-2/files-2.1/4c84737f95070471feaa0ade85fc53de/AndroidManifest.xml:2:1-9:12
MERGED from [com.facebook.fresco:drawee:1.10.0] /Users/thejasree/.gradle/caches/transforms-2/files-2.1/d585717eb454004e7c0401e8e435cd11/AndroidManifest.xml:2:1-9:12
MERGED from [com.facebook.fresco:imagepipeline:1.10.0] /Users/thejasree/.gradle/caches/transforms-2/files-2.1/b3f520fbdaad91a5071c67a511bf1ab6/AndroidManifest.xml:2:1-9:12
MERGED from [com.facebook.fresco:imagepipeline-base:1.10.0] /Users/thejasree/.gradle/caches/transforms-2/files-2.1/f36b91f0037de135251a2603fe6c390b/AndroidManifest.xml:2:1-9:12
MERGED from [com.facebook.soloader:soloader:0.6.0] /Users/thejasree/.gradle/caches/transforms-2/files-2.1/b351f76612567feeb4d53e601aa37937/AndroidManifest.xml:2:1-13:12
MERGED from [com.facebook.fresco:fbcore:1.10.0] /Users/thejasree/.gradle/caches/transforms-2/files-2.1/16dcf03104893893530e3940fa58926e/AndroidManifest.xml:2:1-9:12
INJECTED from /Users/thejasree/Desktop/NewProject/android/app/src/main/AndroidManifest.xml:1:1-33:12
INJECTED from /Users/thejasree/Desktop/NewProject/android/app/src/main/AndroidManifest.xml:1:1-33:12
INJECTED from /Users/thejasree/Desktop/NewProject/android/app/src/main/AndroidManifest.xml:1:1-33:12
	package
		ADDED from /Users/thejasree/Desktop/NewProject/android/app/src/main/AndroidManifest.xml:2:3-27
		INJECTED from /Users/thejasree/Desktop/NewProject/android/app/src/main/AndroidManifest.xml
		INJECTED from /Users/thejasree/Desktop/NewProject/android/app/src/main/AndroidManifest.xml
	android:versionName
		INJECTED from /Users/thejasree/Desktop/NewProject/android/app/src/main/AndroidManifest.xml
		ADDED from /Users/thejasree/Desktop/NewProject/android/app/src/main/AndroidManifest.xml:1:1-33:12
		INJECTED from /Users/thejasree/Desktop/NewProject/android/app/src/main/AndroidManifest.xml
	android:versionCode
		INJECTED from /Users/thejasree/Desktop/NewProject/android/app/src/main/AndroidManifest.xml
		ADDED from /Users/thejasree/Desktop/NewProject/android/app/src/main/AndroidManifest.xml:1:1-33:12
		INJECTED from /Users/thejasree/Desktop/NewProject/android/app/src/main/AndroidManifest.xml
	xmlns:android
		ADDED from /Users/thejasree/Desktop/NewProject/android/app/src/main/AndroidManifest.xml:1:11-69
uses-permission#android.permission.INTERNET
ADDED from /Users/thejasree/Desktop/NewProject/android/app/src/main/AndroidManifest.xml:4:5-67
MERGED from [:react-native-maps] /Users/thejasree/Desktop/NewProject/node_modules/react-native-maps/lib/android/build/intermediates/library_manifest/release/AndroidManifest.xml:9:5-67
MERGED from [:react-native-maps] /Users/thejasree/Desktop/NewProject/node_modules/react-native-maps/lib/android/build/intermediates/library_manifest/release/AndroidManifest.xml:9:5-67
MERGED from [com.google.android.gms:play-services-maps:16.1.0] /Users/thejasree/.gradle/caches/transforms-2/files-2.1/e6137ab584aade54ddaec47ff4b76551/AndroidManifest.xml:24:5-67
MERGED from [com.google.android.gms:play-services-maps:16.1.0] /Users/thejasree/.gradle/caches/transforms-2/files-2.1/e6137ab584aade54ddaec47ff4b76551/AndroidManifest.xml:24:5-67
	android:name
		ADDED from /Users/thejasree/Desktop/NewProject/android/app/src/main/AndroidManifest.xml:4:22-64
uses-permission#android.permission.CAMERA
ADDED from /Users/thejasree/Desktop/NewProject/android/app/src/main/AndroidManifest.xml:5:5-65
MERGED from [com.otaliastudios:cameraview:2.0.0-beta04] /Users/thejasree/.gradle/caches/transforms-2/files-2.1/541f0c87ffd2967fb3d2d3d60c958762/AndroidManifest.xml:11:5-65
MERGED from [com.otaliastudios:cameraview:2.0.0-beta04] /Users/thejasree/.gradle/caches/transforms-2/files-2.1/541f0c87ffd2967fb3d2d3d60c958762/AndroidManifest.xml:11:5-65
	android:name
		ADDED from /Users/thejasree/Desktop/NewProject/android/app/src/main/AndroidManifest.xml:5:22-62
uses-permission#android.permission.WRITE_EXTERNAL_STORAGE
ADDED from /Users/thejasree/Desktop/NewProject/android/app/src/main/AndroidManifest.xml:6:5-80
	android:name
		ADDED from /Users/thejasree/Desktop/NewProject/android/app/src/main/AndroidManifest.xml:6:22-78
uses-permission#android.permission.ACCESS_FINE_LOCATION
ADDED from /Users/thejasree/Desktop/NewProject/android/app/src/main/AndroidManifest.xml:7:5-79
	android:name
		ADDED from /Users/thejasree/Desktop/NewProject/android/app/src/main/AndroidManifest.xml:7:22-76
uses-permission#android.permission.ACCESS_COARSE_LOCATION
ADDED from /Users/thejasree/Desktop/NewProject/android/app/src/main/AndroidManifest.xml:8:5-81
MERGED from [:react-native-maps] /Users/thejasree/Desktop/NewProject/node_modules/react-native-maps/lib/android/build/intermediates/library_manifest/release/AndroidManifest.xml:10:5-81
MERGED from [:react-native-maps] /Users/thejasree/Desktop/NewProject/node_modules/react-native-maps/lib/android/build/intermediates/library_manifest/release/AndroidManifest.xml:10:5-81
	android:name
		ADDED from /Users/thejasree/Desktop/NewProject/android/app/src/main/AndroidManifest.xml:8:22-78
application
ADDED from /Users/thejasree/Desktop/NewProject/android/app/src/main/AndroidManifest.xml:10:5-31:19
MERGED from [:react-native-image-picker] /Users/thejasree/Desktop/NewProject/node_modules/react-native-image-picker/android/build/intermediates/library_manifest/release/AndroidManifest.xml:11:5-21:19
MERGED from [:react-native-image-picker] /Users/thejasree/Desktop/NewProject/node_modules/react-native-image-picker/android/build/intermediates/library_manifest/release/AndroidManifest.xml:11:5-21:19
MERGED from [com.facebook.react:react-native:0.59.9] /Users/thejasree/.gradle/caches/transforms-2/files-2.1/38ec6b59de56259a5cafe73523d57b2d/AndroidManifest.xml:11:5-20
MERGED from [com.facebook.react:react-native:0.59.9] /Users/thejasree/.gradle/caches/transforms-2/files-2.1/38ec6b59de56259a5cafe73523d57b2d/AndroidManifest.xml:11:5-20
MERGED from [com.google.android.gms:play-services-maps:16.1.0] /Users/thejasree/.gradle/caches/transforms-2/files-2.1/e6137ab584aade54ddaec47ff4b76551/AndroidManifest.xml:30:5-36:19
MERGED from [com.google.android.gms:play-services-maps:16.1.0] /Users/thejasree/.gradle/caches/transforms-2/files-2.1/e6137ab584aade54ddaec47ff4b76551/AndroidManifest.xml:30:5-36:19
MERGED from [com.otaliastudios:cameraview:2.0.0-beta04] /Users/thejasree/.gradle/caches/transforms-2/files-2.1/541f0c87ffd2967fb3d2d3d60c958762/AndroidManifest.xml:32:5-20
MERGED from [com.otaliastudios:cameraview:2.0.0-beta04] /Users/thejasree/.gradle/caches/transforms-2/files-2.1/541f0c87ffd2967fb3d2d3d60c958762/AndroidManifest.xml:32:5-20
MERGED from [com.google.android.gms:play-services-location:16.0.0] /Users/thejasree/.gradle/caches/transforms-2/files-2.1/f577f02beba01d6bc74d005b1f60ead4/AndroidManifest.xml:7:5-20
MERGED from [com.google.android.gms:play-services-location:16.0.0] /Users/thejasree/.gradle/caches/transforms-2/files-2.1/f577f02beba01d6bc74d005b1f60ead4/AndroidManifest.xml:7:5-20
MERGED from [com.google.maps.android:android-maps-utils:0.5] /Users/thejasree/.gradle/caches/transforms-2/files-2.1/4d71ced357eae170d4620d8923c433a5/AndroidManifest.xml:7:5-11:19
MERGED from [com.google.maps.android:android-maps-utils:0.5] /Users/thejasree/.gradle/caches/transforms-2/files-2.1/4d71ced357eae170d4620d8923c433a5/AndroidManifest.xml:7:5-11:19
MERGED from [com.google.android.gms:play-services-base:16.0.1] /Users/thejasree/.gradle/caches/transforms-2/files-2.1/5462cffb375830686c646d9de27a6700/AndroidManifest.xml:22:5-27:19
MERGED from [com.google.android.gms:play-services-base:16.0.1] /Users/thejasree/.gradle/caches/transforms-2/files-2.1/5462cffb375830686c646d9de27a6700/AndroidManifest.xml:22:5-27:19
MERGED from [com.google.android.gms:play-services-places-placereport:16.0.0] /Users/thejasree/.gradle/caches/transforms-2/files-2.1/e27def8aeaaba3235fb8bb55e46c7d6d/AndroidManifest.xml:22:5-20
MERGED from [com.google.android.gms:play-services-places-placereport:16.0.0] /Users/thejasree/.gradle/caches/transforms-2/files-2.1/e27def8aeaaba3235fb8bb55e46c7d6d/AndroidManifest.xml:22:5-20
MERGED from [com.google.android.gms:play-services-tasks:16.0.1] /Users/thejasree/.gradle/caches/transforms-2/files-2.1/c8d4b0bc0c482f026cf1c590fe4c6a85/AndroidManifest.xml:7:5-20
MERGED from [com.google.android.gms:play-services-tasks:16.0.1] /Users/thejasree/.gradle/caches/transforms-2/files-2.1/c8d4b0bc0c482f026cf1c590fe4c6a85/AndroidManifest.xml:7:5-20
MERGED from [com.google.android.gms:play-services-basement:16.0.1] /Users/thejasree/.gradle/caches/transforms-2/files-2.1/649a90a8e2ee3424de3e1e62a693297d/AndroidManifest.xml:22:5-26:19
MERGED from [com.google.android.gms:play-services-basement:16.0.1] /Users/thejasree/.gradle/caches/transforms-2/files-2.1/649a90a8e2ee3424de3e1e62a693297d/AndroidManifest.xml:22:5-26:19
MERGED from [com.android.support:support-v4:26.1.0] /Users/thejasree/.gradle/caches/transforms-2/files-2.1/dfef7f0696a405fe4d998f1b65788fed/AndroidManifest.xml:25:5-29:19
MERGED from [com.android.support:support-v4:26.1.0] /Users/thejasree/.gradle/caches/transforms-2/files-2.1/dfef7f0696a405fe4d998f1b65788fed/AndroidManifest.xml:25:5-29:19
MERGED from [com.android.support:support-media-compat:26.1.0] /Users/thejasree/.gradle/caches/transforms-2/files-2.1/3577966440a326a216d52a210db77cd5/AndroidManifest.xml:25:5-29:19
MERGED from [com.android.support:support-media-compat:26.1.0] /Users/thejasree/.gradle/caches/transforms-2/files-2.1/3577966440a326a216d52a210db77cd5/AndroidManifest.xml:25:5-29:19
MERGED from [com.android.support:support-compat:28.0.0] /Users/thejasree/.gradle/caches/transforms-2/files-2.1/45e9177e6ccc394fd130e6d80ac2e89b/AndroidManifest.xml:22:5-94
MERGED from [com.android.support:support-compat:28.0.0] /Users/thejasree/.gradle/caches/transforms-2/files-2.1/45e9177e6ccc394fd130e6d80ac2e89b/AndroidManifest.xml:22:5-94
MERGED from [com.android.support:versionedparcelable:28.0.0] /Users/thejasree/.gradle/caches/transforms-2/files-2.1/b1693ad3735af0bf2a266648c57dc5d9/AndroidManifest.xml:22:5-23:19
MERGED from [com.android.support:versionedparcelable:28.0.0] /Users/thejasree/.gradle/caches/transforms-2/files-2.1/b1693ad3735af0bf2a266648c57dc5d9/AndroidManifest.xml:22:5-23:19
MERGED from [com.facebook.soloader:soloader:0.6.0] /Users/thejasree/.gradle/caches/transforms-2/files-2.1/b351f76612567feeb4d53e601aa37937/AndroidManifest.xml:11:5-20
MERGED from [com.facebook.soloader:soloader:0.6.0] /Users/thejasree/.gradle/caches/transforms-2/files-2.1/b351f76612567feeb4d53e601aa37937/AndroidManifest.xml:11:5-20
	android:appComponentFactory
		ADDED from [com.android.support:support-compat:28.0.0] /Users/thejasree/.gradle/caches/transforms-2/files-2.1/45e9177e6ccc394fd130e6d80ac2e89b/AndroidManifest.xml:22:18-91
	android:label
		ADDED from /Users/thejasree/Desktop/NewProject/android/app/src/main/AndroidManifest.xml:12:7-39
	android:roundIcon
		ADDED from /Users/thejasree/Desktop/NewProject/android/app/src/main/AndroidManifest.xml:14:7-52
	android:icon
		ADDED from /Users/thejasree/Desktop/NewProject/android/app/src/main/AndroidManifest.xml:13:7-41
	android:allowBackup
		ADDED from /Users/thejasree/Desktop/NewProject/android/app/src/main/AndroidManifest.xml:15:7-34
	android:theme
		ADDED from /Users/thejasree/Desktop/NewProject/android/app/src/main/AndroidManifest.xml:16:7-38
	android:name
		ADDED from /Users/thejasree/Desktop/NewProject/android/app/src/main/AndroidManifest.xml:11:7-38
activity#com.newproject.MainActivity
ADDED from /Users/thejasree/Desktop/NewProject/android/app/src/main/AndroidManifest.xml:17:7-26:18
	android:label
		ADDED from /Users/thejasree/Desktop/NewProject/android/app/src/main/AndroidManifest.xml:19:9-41
	android:windowSoftInputMode
		ADDED from /Users/thejasree/Desktop/NewProject/android/app/src/main/AndroidManifest.xml:21:9-51
	android:configChanges
		ADDED from /Users/thejasree/Desktop/NewProject/android/app/src/main/AndroidManifest.xml:20:9-79
	android:name
		ADDED from /Users/thejasree/Desktop/NewProject/android/app/src/main/AndroidManifest.xml:18:9-37
intent-filter#action:name:android.intent.action.MAIN+category:name:android.intent.category.LAUNCHER
ADDED from /Users/thejasree/Desktop/NewProject/android/app/src/main/AndroidManifest.xml:22:9-25:25
action#android.intent.action.MAIN
ADDED from /Users/thejasree/Desktop/NewProject/android/app/src/main/AndroidManifest.xml:23:13-65
	android:name
		ADDED from /Users/thejasree/Desktop/NewProject/android/app/src/main/AndroidManifest.xml:23:21-62
category#android.intent.category.LAUNCHER
ADDED from /Users/thejasree/Desktop/NewProject/android/app/src/main/AndroidManifest.xml:24:13-73
	android:name
		ADDED from /Users/thejasree/Desktop/NewProject/android/app/src/main/AndroidManifest.xml:24:23-70
activity#com.facebook.react.devsupport.DevSettingsActivity
ADDED from /Users/thejasree/Desktop/NewProject/android/app/src/main/AndroidManifest.xml:27:7-84
	android:name
		ADDED from /Users/thejasree/Desktop/NewProject/android/app/src/main/AndroidManifest.xml:27:17-81
meta-data#com.google.android.maps.v2.API_KEY
ADDED from /Users/thejasree/Desktop/NewProject/android/app/src/main/AndroidManifest.xml:28:7-30:74
	android:value
		ADDED from /Users/thejasree/Desktop/NewProject/android/app/src/main/AndroidManifest.xml:30:17-72
	android:name
		ADDED from /Users/thejasree/Desktop/NewProject/android/app/src/main/AndroidManifest.xml:29:17-66
uses-sdk
INJECTED from /Users/thejasree/Desktop/NewProject/android/app/src/main/AndroidManifest.xml reason: use-sdk injection requested
INJECTED from /Users/thejasree/Desktop/NewProject/android/app/src/main/AndroidManifest.xml
INJECTED from /Users/thejasree/Desktop/NewProject/android/app/src/main/AndroidManifest.xml
MERGED from [:@yyyyu_react-native-barcode] /Users/thejasree/Desktop/NewProject/node_modules/@yyyyu/react-native-barcode/android/build/intermediates/library_manifest/release/AndroidManifest.xml:5:5-7:41
MERGED from [:@yyyyu_react-native-barcode] /Users/thejasree/Desktop/NewProject/node_modules/@yyyyu/react-native-barcode/android/build/intermediates/library_manifest/release/AndroidManifest.xml:5:5-7:41
MERGED from [:react-native-android-location-enabler] /Users/thejasree/Desktop/NewProject/node_modules/react-native-android-location-enabler/android/build/intermediates/library_manifest/release/AndroidManifest.xml:7:5-9:41
MERGED from [:react-native-android-location-enabler] /Users/thejasree/Desktop/NewProject/node_modules/react-native-android-location-enabler/android/build/intermediates/library_manifest/release/AndroidManifest.xml:7:5-9:41
MERGED from [:react-native-maps] /Users/thejasree/Desktop/NewProject/node_modules/react-native-maps/lib/android/build/intermediates/library_manifest/release/AndroidManifest.xml:5:5-7:41
MERGED from [:react-native-maps] /Users/thejasree/Desktop/NewProject/node_modules/react-native-maps/lib/android/build/intermediates/library_manifest/release/AndroidManifest.xml:5:5-7:41
MERGED from [:@react-native-community_async-storage] /Users/thejasree/Desktop/NewProject/node_modules/@react-native-community/async-storage/android/build/intermediates/library_manifest/release/AndroidManifest.xml:5:5-7:41
MERGED from [:@react-native-community_async-storage] /Users/thejasree/Desktop/NewProject/node_modules/@react-native-community/async-storage/android/build/intermediates/library_manifest/release/AndroidManifest.xml:5:5-7:41
MERGED from [:react-native-image-picker] /Users/thejasree/Desktop/NewProject/node_modules/react-native-image-picker/android/build/intermediates/library_manifest/release/AndroidManifest.xml:7:5-9:41
MERGED from [:react-native-image-picker] /Users/thejasree/Desktop/NewProject/node_modules/react-native-image-picker/android/build/intermediates/library_manifest/release/AndroidManifest.xml:7:5-9:41
MERGED from [:react-native-vector-icons] /Users/thejasree/Desktop/NewProject/node_modules/react-native-vector-icons/android/build/intermediates/library_manifest/release/AndroidManifest.xml:7:5-9:41
MERGED from [:react-native-vector-icons] /Users/thejasree/Desktop/NewProject/node_modules/react-native-vector-icons/android/build/intermediates/library_manifest/release/AndroidManifest.xml:7:5-9:41
MERGED from [:react-native-gesture-handler] /Users/thejasree/Desktop/NewProject/node_modules/react-native-gesture-handler/android/build/intermediates/library_manifest/release/AndroidManifest.xml:7:5-9:41
MERGED from [:react-native-gesture-handler] /Users/thejasree/Desktop/NewProject/node_modules/react-native-gesture-handler/android/build/intermediates/library_manifest/release/AndroidManifest.xml:7:5-9:41
MERGED from [com.facebook.react:react-native:0.59.9] /Users/thejasree/.gradle/caches/transforms-2/files-2.1/38ec6b59de56259a5cafe73523d57b2d/AndroidManifest.xml:7:5-9:41
MERGED from [com.facebook.react:react-native:0.59.9] /Users/thejasree/.gradle/caches/transforms-2/files-2.1/38ec6b59de56259a5cafe73523d57b2d/AndroidManifest.xml:7:5-9:41
MERGED from [com.android.support:appcompat-v7:28.0.0] /Users/thejasree/.gradle/caches/transforms-2/files-2.1/5dde2ad7b6bc116c332e948e929e7019/AndroidManifest.xml:20:5-44
MERGED from [com.android.support:appcompat-v7:28.0.0] /Users/thejasree/.gradle/caches/transforms-2/files-2.1/5dde2ad7b6bc116c332e948e929e7019/AndroidManifest.xml:20:5-44
MERGED from [com.google.android.gms:play-services-maps:16.1.0] /Users/thejasree/.gradle/caches/transforms-2/files-2.1/e6137ab584aade54ddaec47ff4b76551/AndroidManifest.xml:20:5-44
MERGED from [com.google.android.gms:play-services-maps:16.1.0] /Users/thejasree/.gradle/caches/transforms-2/files-2.1/e6137ab584aade54ddaec47ff4b76551/AndroidManifest.xml:20:5-44
MERGED from [com.otaliastudios:cameraview:2.0.0-beta04] /Users/thejasree/.gradle/caches/transforms-2/files-2.1/541f0c87ffd2967fb3d2d3d60c958762/AndroidManifest.xml:7:5-9:41
MERGED from [com.otaliastudios:cameraview:2.0.0-beta04] /Users/thejasree/.gradle/caches/transforms-2/files-2.1/541f0c87ffd2967fb3d2d3d60c958762/AndroidManifest.xml:7:5-9:41
MERGED from [androidx.lifecycle:lifecycle-runtime:2.0.0] /Users/thejasree/.gradle/caches/transforms-2/files-2.1/a525ef0089c2f4e9a68ee8a6549d8378/AndroidManifest.xml:20:5-44
MERGED from [androidx.lifecycle:lifecycle-runtime:2.0.0] /Users/thejasree/.gradle/caches/transforms-2/files-2.1/a525ef0089c2f4e9a68ee8a6549d8378/AndroidManifest.xml:20:5-44
MERGED from [com.google.android.gms:play-services-location:16.0.0] /Users/thejasree/.gradle/caches/transforms-2/files-2.1/f577f02beba01d6bc74d005b1f60ead4/AndroidManifest.xml:5:5-44
MERGED from [com.google.android.gms:play-services-location:16.0.0] /Users/thejasree/.gradle/caches/transforms-2/files-2.1/f577f02beba01d6bc74d005b1f60ead4/AndroidManifest.xml:5:5-44
MERGED from [com.google.maps.android:android-maps-utils:0.5] /Users/thejasree/.gradle/caches/transforms-2/files-2.1/4d71ced357eae170d4620d8923c433a5/AndroidManifest.xml:5:5-43
MERGED from [com.google.maps.android:android-maps-utils:0.5] /Users/thejasree/.gradle/caches/transforms-2/files-2.1/4d71ced357eae170d4620d8923c433a5/AndroidManifest.xml:5:5-43
MERGED from [com.google.android.gms:play-services-base:16.0.1] /Users/thejasree/.gradle/caches/transforms-2/files-2.1/5462cffb375830686c646d9de27a6700/AndroidManifest.xml:20:5-44
MERGED from [com.google.android.gms:play-services-base:16.0.1] /Users/thejasree/.gradle/caches/transforms-2/files-2.1/5462cffb375830686c646d9de27a6700/AndroidManifest.xml:20:5-44
MERGED from [com.google.android.gms:play-services-places-placereport:16.0.0] /Users/thejasree/.gradle/caches/transforms-2/files-2.1/e27def8aeaaba3235fb8bb55e46c7d6d/AndroidManifest.xml:20:5-44
MERGED from [com.google.android.gms:play-services-places-placereport:16.0.0] /Users/thejasree/.gradle/caches/transforms-2/files-2.1/e27def8aeaaba3235fb8bb55e46c7d6d/AndroidManifest.xml:20:5-44
MERGED from [com.google.android.gms:play-services-tasks:16.0.1] /Users/thejasree/.gradle/caches/transforms-2/files-2.1/c8d4b0bc0c482f026cf1c590fe4c6a85/AndroidManifest.xml:5:5-44
MERGED from [com.google.android.gms:play-services-tasks:16.0.1] /Users/thejasree/.gradle/caches/transforms-2/files-2.1/c8d4b0bc0c482f026cf1c590fe4c6a85/AndroidManifest.xml:5:5-44
MERGED from [com.google.android.gms:play-services-basement:16.0.1] /Users/thejasree/.gradle/caches/transforms-2/files-2.1/649a90a8e2ee3424de3e1e62a693297d/AndroidManifest.xml:20:5-44
MERGED from [com.google.android.gms:play-services-basement:16.0.1] /Users/thejasree/.gradle/caches/transforms-2/files-2.1/649a90a8e2ee3424de3e1e62a693297d/AndroidManifest.xml:20:5-44
MERGED from [com.android.support:support-v4:26.1.0] /Users/thejasree/.gradle/caches/transforms-2/files-2.1/dfef7f0696a405fe4d998f1b65788fed/AndroidManifest.xml:21:5-23:54
MERGED from [com.android.support:support-v4:26.1.0] /Users/thejasree/.gradle/caches/transforms-2/files-2.1/dfef7f0696a405fe4d998f1b65788fed/AndroidManifest.xml:21:5-23:54
MERGED from [com.android.support:support-fragment:28.0.0] /Users/thejasree/.gradle/caches/transforms-2/files-2.1/73a97bce6d5ef50ff8eec53e46673fab/AndroidManifest.xml:20:5-44
MERGED from [com.android.support:support-fragment:28.0.0] /Users/thejasree/.gradle/caches/transforms-2/files-2.1/73a97bce6d5ef50ff8eec53e46673fab/AndroidManifest.xml:20:5-44
MERGED from [com.android.support:animated-vector-drawable:28.0.0] /Users/thejasree/.gradle/caches/transforms-2/files-2.1/d339e43d2c0ecb35c095b43658a92a76/AndroidManifest.xml:20:5-44
MERGED from [com.android.support:animated-vector-drawable:28.0.0] /Users/thejasree/.gradle/caches/transforms-2/files-2.1/d339e43d2c0ecb35c095b43658a92a76/AndroidManifest.xml:20:5-44
MERGED from [com.android.support:support-core-ui:28.0.0] /Users/thejasree/.gradle/caches/transforms-2/files-2.1/f29f4d11419de518cbbb3126271590df/AndroidManifest.xml:20:5-44
MERGED from [com.android.support:support-core-ui:28.0.0] /Users/thejasree/.gradle/caches/transforms-2/files-2.1/f29f4d11419de518cbbb3126271590df/AndroidManifest.xml:20:5-44
MERGED from [com.android.support:support-core-utils:28.0.0] /Users/thejasree/.gradle/caches/transforms-2/files-2.1/b05d6e3d4a7a239babdd2b6ab10f8be7/AndroidManifest.xml:20:5-44
MERGED from [com.android.support:support-core-utils:28.0.0] /Users/thejasree/.gradle/caches/transforms-2/files-2.1/b05d6e3d4a7a239babdd2b6ab10f8be7/AndroidManifest.xml:20:5-44
MERGED from [com.android.support:support-vector-drawable:28.0.0] /Users/thejasree/.gradle/caches/transforms-2/files-2.1/cbb06c210f33c9b50baa6912c79a1325/AndroidManifest.xml:20:5-44
MERGED from [com.android.support:support-vector-drawable:28.0.0] /Users/thejasree/.gradle/caches/transforms-2/files-2.1/cbb06c210f33c9b50baa6912c79a1325/AndroidManifest.xml:20:5-44
MERGED from [com.android.support:loader:28.0.0] /Users/thejasree/.gradle/caches/transforms-2/files-2.1/7d141593d1a02e91efd7f4773240d2e8/AndroidManifest.xml:20:5-44
MERGED from [com.android.support:loader:28.0.0] /Users/thejasree/.gradle/caches/transforms-2/files-2.1/7d141593d1a02e91efd7f4773240d2e8/AndroidManifest.xml:20:5-44
MERGED from [com.android.support:viewpager:28.0.0] /Users/thejasree/.gradle/caches/transforms-2/files-2.1/ac08dbf1bd22bcf79aa05b02e7906a6a/AndroidManifest.xml:20:5-44
MERGED from [com.android.support:viewpager:28.0.0] /Users/thejasree/.gradle/caches/transforms-2/files-2.1/ac08dbf1bd22bcf79aa05b02e7906a6a/AndroidManifest.xml:20:5-44
MERGED from [com.android.support:coordinatorlayout:28.0.0] /Users/thejasree/.gradle/caches/transforms-2/files-2.1/1fc6d137bbc421100412d7d6b76166d8/AndroidManifest.xml:20:5-44
MERGED from [com.android.support:coordinatorlayout:28.0.0] /Users/thejasree/.gradle/caches/transforms-2/files-2.1/1fc6d137bbc421100412d7d6b76166d8/AndroidManifest.xml:20:5-44
MERGED from [com.android.support:drawerlayout:28.0.0] /Users/thejasree/.gradle/caches/transforms-2/files-2.1/62c5f5e4047be04c23a8d6c28b6abf63/AndroidManifest.xml:20:5-44
MERGED from [com.android.support:drawerlayout:28.0.0] /Users/thejasree/.gradle/caches/transforms-2/files-2.1/62c5f5e4047be04c23a8d6c28b6abf63/AndroidManifest.xml:20:5-44
MERGED from [com.android.support:slidingpanelayout:28.0.0] /Users/thejasree/.gradle/caches/transforms-2/files-2.1/47242531df99a6ccdd2d707d17ac7e24/AndroidManifest.xml:20:5-44
MERGED from [com.android.support:slidingpanelayout:28.0.0] /Users/thejasree/.gradle/caches/transforms-2/files-2.1/47242531df99a6ccdd2d707d17ac7e24/AndroidManifest.xml:20:5-44
MERGED from [com.android.support:customview:28.0.0] /Users/thejasree/.gradle/caches/transforms-2/files-2.1/d16c24c12291e5860569a554b1e72415/AndroidManifest.xml:20:5-44
MERGED from [com.android.support:customview:28.0.0] /Users/thejasree/.gradle/caches/transforms-2/files-2.1/d16c24c12291e5860569a554b1e72415/AndroidManifest.xml:20:5-44
MERGED from [com.android.support:swiperefreshlayout:28.0.0] /Users/thejasree/.gradle/caches/transforms-2/files-2.1/4a69ed85facc311024ed866cdc1ed8cd/AndroidManifest.xml:20:5-44
MERGED from [com.android.support:swiperefreshlayout:28.0.0] /Users/thejasree/.gradle/caches/transforms-2/files-2.1/4a69ed85facc311024ed866cdc1ed8cd/AndroidManifest.xml:20:5-44
MERGED from [com.android.support:asynclayoutinflater:28.0.0] /Users/thejasree/.gradle/caches/transforms-2/files-2.1/918805d34540f97040867d20b5f8533a/AndroidManifest.xml:20:5-44
MERGED from [com.android.support:asynclayoutinflater:28.0.0] /Users/thejasree/.gradle/caches/transforms-2/files-2.1/918805d34540f97040867d20b5f8533a/AndroidManifest.xml:20:5-44
MERGED from [com.android.support:support-media-compat:26.1.0] /Users/thejasree/.gradle/caches/transforms-2/files-2.1/3577966440a326a216d52a210db77cd5/AndroidManifest.xml:21:5-23:63
MERGED from [com.android.support:support-media-compat:26.1.0] /Users/thejasree/.gradle/caches/transforms-2/files-2.1/3577966440a326a216d52a210db77cd5/AndroidManifest.xml:21:5-23:63
MERGED from [com.android.support:support-compat:28.0.0] /Users/thejasree/.gradle/caches/transforms-2/files-2.1/45e9177e6ccc394fd130e6d80ac2e89b/AndroidManifest.xml:20:5-44
MERGED from [com.android.support:support-compat:28.0.0] /Users/thejasree/.gradle/caches/transforms-2/files-2.1/45e9177e6ccc394fd130e6d80ac2e89b/AndroidManifest.xml:20:5-44
MERGED from [com.android.support:versionedparcelable:28.0.0] /Users/thejasree/.gradle/caches/transforms-2/files-2.1/b1693ad3735af0bf2a266648c57dc5d9/AndroidManifest.xml:20:5-44
MERGED from [com.android.support:versionedparcelable:28.0.0] /Users/thejasree/.gradle/caches/transforms-2/files-2.1/b1693ad3735af0bf2a266648c57dc5d9/AndroidManifest.xml:20:5-44
MERGED from [com.android.support:cursoradapter:28.0.0] /Users/thejasree/.gradle/caches/transforms-2/files-2.1/4d383095530849676e90156e28faed5d/AndroidManifest.xml:20:5-44
MERGED from [com.android.support:cursoradapter:28.0.0] /Users/thejasree/.gradle/caches/transforms-2/files-2.1/4d383095530849676e90156e28faed5d/AndroidManifest.xml:20:5-44
MERGED from [android.arch.lifecycle:runtime:1.1.1] /Users/thejasree/.gradle/caches/transforms-2/files-2.1/0d03322a2ad6e6a57daeb6a994227bc2/AndroidManifest.xml:20:5-44
MERGED from [android.arch.lifecycle:runtime:1.1.1] /Users/thejasree/.gradle/caches/transforms-2/files-2.1/0d03322a2ad6e6a57daeb6a994227bc2/AndroidManifest.xml:20:5-44
MERGED from [com.android.support:documentfile:28.0.0] /Users/thejasree/.gradle/caches/transforms-2/files-2.1/32558f6943fc0fd5bd1b9e11889bd47b/AndroidManifest.xml:20:5-44
MERGED from [com.android.support:documentfile:28.0.0] /Users/thejasree/.gradle/caches/transforms-2/files-2.1/32558f6943fc0fd5bd1b9e11889bd47b/AndroidManifest.xml:20:5-44
MERGED from [com.android.support:localbroadcastmanager:28.0.0] /Users/thejasree/.gradle/caches/transforms-2/files-2.1/e447972b5ec3a338f0cdcdc6e142c6db/AndroidManifest.xml:20:5-44
MERGED from [com.android.support:localbroadcastmanager:28.0.0] /Users/thejasree/.gradle/caches/transforms-2/files-2.1/e447972b5ec3a338f0cdcdc6e142c6db/AndroidManifest.xml:20:5-44
MERGED from [com.android.support:print:28.0.0] /Users/thejasree/.gradle/caches/transforms-2/files-2.1/427d2135790b1bc44d48e78defcf7ec7/AndroidManifest.xml:20:5-44
MERGED from [com.android.support:print:28.0.0] /Users/thejasree/.gradle/caches/transforms-2/files-2.1/427d2135790b1bc44d48e78defcf7ec7/AndroidManifest.xml:20:5-44
MERGED from [android.arch.lifecycle:viewmodel:1.1.1] /Users/thejasree/.gradle/caches/transforms-2/files-2.1/8517181b3650d829633f0943f373e0fb/AndroidManifest.xml:20:5-44
MERGED from [android.arch.lifecycle:viewmodel:1.1.1] /Users/thejasree/.gradle/caches/transforms-2/files-2.1/8517181b3650d829633f0943f373e0fb/AndroidManifest.xml:20:5-44
MERGED from [android.arch.lifecycle:livedata:1.1.1] /Users/thejasree/.gradle/caches/transforms-2/files-2.1/5704837d4d8ad71481f5a1464083b766/AndroidManifest.xml:20:5-44
MERGED from [android.arch.lifecycle:livedata:1.1.1] /Users/thejasree/.gradle/caches/transforms-2/files-2.1/5704837d4d8ad71481f5a1464083b766/AndroidManifest.xml:20:5-44
MERGED from [android.arch.lifecycle:livedata-core:1.1.1] /Users/thejasree/.gradle/caches/transforms-2/files-2.1/65481b4b18dbe28595027bb33fe35b6d/AndroidManifest.xml:20:5-44
MERGED from [android.arch.lifecycle:livedata-core:1.1.1] /Users/thejasree/.gradle/caches/transforms-2/files-2.1/65481b4b18dbe28595027bb33fe35b6d/AndroidManifest.xml:20:5-44
MERGED from [android.arch.core:runtime:1.1.1] /Users/thejasree/.gradle/caches/transforms-2/files-2.1/6cbc68de527561f79890075ac4c30d35/AndroidManifest.xml:20:5-44
MERGED from [android.arch.core:runtime:1.1.1] /Users/thejasree/.gradle/caches/transforms-2/files-2.1/6cbc68de527561f79890075ac4c30d35/AndroidManifest.xml:20:5-44
MERGED from [com.android.support:interpolator:28.0.0] /Users/thejasree/.gradle/caches/transforms-2/files-2.1/464291d26d546f84c30d877c4da0512a/AndroidManifest.xml:20:5-44
MERGED from [com.android.support:interpolator:28.0.0] /Users/thejasree/.gradle/caches/transforms-2/files-2.1/464291d26d546f84c30d877c4da0512a/AndroidManifest.xml:20:5-44
MERGED from [com.facebook.fresco:fresco:1.10.0] /Users/thejasree/.gradle/caches/transforms-2/files-2.1/0597adddeb0fa5c682a20edee270ec83/AndroidManifest.xml:5:5-7:41
MERGED from [com.facebook.fresco:fresco:1.10.0] /Users/thejasree/.gradle/caches/transforms-2/files-2.1/0597adddeb0fa5c682a20edee270ec83/AndroidManifest.xml:5:5-7:41
MERGED from [com.facebook.fresco:imagepipeline-okhttp3:1.10.0] /Users/thejasree/.gradle/caches/transforms-2/files-2.1/4c84737f95070471feaa0ade85fc53de/AndroidManifest.xml:5:5-7:41
MERGED from [com.facebook.fresco:imagepipeline-okhttp3:1.10.0] /Users/thejasree/.gradle/caches/transforms-2/files-2.1/4c84737f95070471feaa0ade85fc53de/AndroidManifest.xml:5:5-7:41
MERGED from [com.facebook.fresco:drawee:1.10.0] /Users/thejasree/.gradle/caches/transforms-2/files-2.1/d585717eb454004e7c0401e8e435cd11/AndroidManifest.xml:5:5-7:41
MERGED from [com.facebook.fresco:drawee:1.10.0] /Users/thejasree/.gradle/caches/transforms-2/files-2.1/d585717eb454004e7c0401e8e435cd11/AndroidManifest.xml:5:5-7:41
MERGED from [com.facebook.fresco:imagepipeline:1.10.0] /Users/thejasree/.gradle/caches/transforms-2/files-2.1/b3f520fbdaad91a5071c67a511bf1ab6/AndroidManifest.xml:5:5-7:41
MERGED from [com.facebook.fresco:imagepipeline:1.10.0] /Users/thejasree/.gradle/caches/transforms-2/files-2.1/b3f520fbdaad91a5071c67a511bf1ab6/AndroidManifest.xml:5:5-7:41
MERGED from [com.facebook.fresco:imagepipeline-base:1.10.0] /Users/thejasree/.gradle/caches/transforms-2/files-2.1/f36b91f0037de135251a2603fe6c390b/AndroidManifest.xml:5:5-7:41
MERGED from [com.facebook.fresco:imagepipeline-base:1.10.0] /Users/thejasree/.gradle/caches/transforms-2/files-2.1/f36b91f0037de135251a2603fe6c390b/AndroidManifest.xml:5:5-7:41
MERGED from [com.facebook.soloader:soloader:0.6.0] /Users/thejasree/.gradle/caches/transforms-2/files-2.1/b351f76612567feeb4d53e601aa37937/AndroidManifest.xml:7:5-9:41
MERGED from [com.facebook.soloader:soloader:0.6.0] /Users/thejasree/.gradle/caches/transforms-2/files-2.1/b351f76612567feeb4d53e601aa37937/AndroidManifest.xml:7:5-9:41
MERGED from [com.facebook.fresco:fbcore:1.10.0] /Users/thejasree/.gradle/caches/transforms-2/files-2.1/16dcf03104893893530e3940fa58926e/AndroidManifest.xml:5:5-7:41
MERGED from [com.facebook.fresco:fbcore:1.10.0] /Users/thejasree/.gradle/caches/transforms-2/files-2.1/16dcf03104893893530e3940fa58926e/AndroidManifest.xml:5:5-7:41
INJECTED from /Users/thejasree/Desktop/NewProject/android/app/src/main/AndroidManifest.xml
INJECTED from /Users/thejasree/Desktop/NewProject/android/app/src/main/AndroidManifest.xml
	tools:overrideLibrary
		ADDED from [com.android.support:support-v4:26.1.0] /Users/thejasree/.gradle/caches/transforms-2/files-2.1/dfef7f0696a405fe4d998f1b65788fed/AndroidManifest.xml:23:9-51
	android:targetSdkVersion
		INJECTED from /Users/thejasree/Desktop/NewProject/android/app/src/main/AndroidManifest.xml
		ADDED from /Users/thejasree/Desktop/NewProject/android/app/src/main/AndroidManifest.xml
		INJECTED from /Users/thejasree/Desktop/NewProject/android/app/src/main/AndroidManifest.xml
	android:minSdkVersion
		INJECTED from /Users/thejasree/Desktop/NewProject/android/app/src/main/AndroidManifest.xml
		ADDED from /Users/thejasree/Desktop/NewProject/android/app/src/main/AndroidManifest.xml
		INJECTED from /Users/thejasree/Desktop/NewProject/android/app/src/main/AndroidManifest.xml
provider#com.imagepicker.FileProvider
ADDED from [:react-native-image-picker] /Users/thejasree/Desktop/NewProject/node_modules/react-native-image-picker/android/build/intermediates/library_manifest/release/AndroidManifest.xml:12:9-20:20
	android:grantUriPermissions
		ADDED from [:react-native-image-picker] /Users/thejasree/Desktop/NewProject/node_modules/react-native-image-picker/android/build/intermediates/library_manifest/release/AndroidManifest.xml:16:13-47
	android:authorities
		ADDED from [:react-native-image-picker] /Users/thejasree/Desktop/NewProject/node_modules/react-native-image-picker/android/build/intermediates/library_manifest/release/AndroidManifest.xml:14:13-60
	android:exported
		ADDED from [:react-native-image-picker] /Users/thejasree/Desktop/NewProject/node_modules/react-native-image-picker/android/build/intermediates/library_manifest/release/AndroidManifest.xml:15:13-37
	android:name
		ADDED from [:react-native-image-picker] /Users/thejasree/Desktop/NewProject/node_modules/react-native-image-picker/android/build/intermediates/library_manifest/release/AndroidManifest.xml:13:13-56
meta-data#android.support.FILE_PROVIDER_PATHS
ADDED from [:react-native-image-picker] /Users/thejasree/Desktop/NewProject/node_modules/react-native-image-picker/android/build/intermediates/library_manifest/release/AndroidManifest.xml:17:13-19:58
	android:resource
		ADDED from [:react-native-image-picker] /Users/thejasree/Desktop/NewProject/node_modules/react-native-image-picker/android/build/intermediates/library_manifest/release/AndroidManifest.xml:19:17-55
	android:name
		ADDED from [:react-native-image-picker] /Users/thejasree/Desktop/NewProject/node_modules/react-native-image-picker/android/build/intermediates/library_manifest/release/AndroidManifest.xml:18:17-67
uses-permission#android.permission.ACCESS_NETWORK_STATE
ADDED from [com.google.android.gms:play-services-maps:16.1.0] /Users/thejasree/.gradle/caches/transforms-2/files-2.1/e6137ab584aade54ddaec47ff4b76551/AndroidManifest.xml:23:5-79
	android:name
		ADDED from [com.google.android.gms:play-services-maps:16.1.0] /Users/thejasree/.gradle/caches/transforms-2/files-2.1/e6137ab584aade54ddaec47ff4b76551/AndroidManifest.xml:23:22-76
uses-feature#0x00020000
ADDED from [com.google.android.gms:play-services-maps:16.1.0] /Users/thejasree/.gradle/caches/transforms-2/files-2.1/e6137ab584aade54ddaec47ff4b76551/AndroidManifest.xml:26:5-28:35
	android:glEsVersion
		ADDED from [com.google.android.gms:play-services-maps:16.1.0] /Users/thejasree/.gradle/caches/transforms-2/files-2.1/e6137ab584aade54ddaec47ff4b76551/AndroidManifest.xml:27:9-41
	android:required
		ADDED from [com.google.android.gms:play-services-maps:16.1.0] /Users/thejasree/.gradle/caches/transforms-2/files-2.1/e6137ab584aade54ddaec47ff4b76551/AndroidManifest.xml:28:9-32
uses-library#org.apache.http.legacy
ADDED from [com.google.android.gms:play-services-maps:16.1.0] /Users/thejasree/.gradle/caches/transforms-2/files-2.1/e6137ab584aade54ddaec47ff4b76551/AndroidManifest.xml:33:9-35:40
	android:required
		ADDED from [com.google.android.gms:play-services-maps:16.1.0] /Users/thejasree/.gradle/caches/transforms-2/files-2.1/e6137ab584aade54ddaec47ff4b76551/AndroidManifest.xml:35:13-37
	android:name
		ADDED from [com.google.android.gms:play-services-maps:16.1.0] /Users/thejasree/.gradle/caches/transforms-2/files-2.1/e6137ab584aade54ddaec47ff4b76551/AndroidManifest.xml:34:13-50
uses-feature#android.hardware.camera
ADDED from [com.otaliastudios:cameraview:2.0.0-beta04] /Users/thejasree/.gradle/caches/transforms-2/files-2.1/541f0c87ffd2967fb3d2d3d60c958762/AndroidManifest.xml:19:5-21:36
	android:required
		ADDED from [com.otaliastudios:cameraview:2.0.0-beta04] /Users/thejasree/.gradle/caches/transforms-2/files-2.1/541f0c87ffd2967fb3d2d3d60c958762/AndroidManifest.xml:21:9-33
	android:name
		ADDED from [com.otaliastudios:cameraview:2.0.0-beta04] /Users/thejasree/.gradle/caches/transforms-2/files-2.1/541f0c87ffd2967fb3d2d3d60c958762/AndroidManifest.xml:20:9-47
uses-feature#android.hardware.camera.autofocus
ADDED from [com.otaliastudios:cameraview:2.0.0-beta04] /Users/thejasree/.gradle/caches/transforms-2/files-2.1/541f0c87ffd2967fb3d2d3d60c958762/AndroidManifest.xml:22:5-24:36
	android:required
		ADDED from [com.otaliastudios:cameraview:2.0.0-beta04] /Users/thejasree/.gradle/caches/transforms-2/files-2.1/541f0c87ffd2967fb3d2d3d60c958762/AndroidManifest.xml:24:9-33
	android:name
		ADDED from [com.otaliastudios:cameraview:2.0.0-beta04] /Users/thejasree/.gradle/caches/transforms-2/files-2.1/541f0c87ffd2967fb3d2d3d60c958762/AndroidManifest.xml:23:9-57
uses-feature#android.hardware.camera.front
ADDED from [com.otaliastudios:cameraview:2.0.0-beta04] /Users/thejasree/.gradle/caches/transforms-2/files-2.1/541f0c87ffd2967fb3d2d3d60c958762/AndroidManifest.xml:25:5-27:36
	android:required
		ADDED from [com.otaliastudios:cameraview:2.0.0-beta04] /Users/thejasree/.gradle/caches/transforms-2/files-2.1/541f0c87ffd2967fb3d2d3d60c958762/AndroidManifest.xml:27:9-33
	android:name
		ADDED from [com.otaliastudios:cameraview:2.0.0-beta04] /Users/thejasree/.gradle/caches/transforms-2/files-2.1/541f0c87ffd2967fb3d2d3d60c958762/AndroidManifest.xml:26:9-53
uses-feature#android.hardware.microphone
ADDED from [com.otaliastudios:cameraview:2.0.0-beta04] /Users/thejasree/.gradle/caches/transforms-2/files-2.1/541f0c87ffd2967fb3d2d3d60c958762/AndroidManifest.xml:28:5-30:36
	android:required
		ADDED from [com.otaliastudios:cameraview:2.0.0-beta04] /Users/thejasree/.gradle/caches/transforms-2/files-2.1/541f0c87ffd2967fb3d2d3d60c958762/AndroidManifest.xml:30:9-33
	android:name
		ADDED from [com.otaliastudios:cameraview:2.0.0-beta04] /Users/thejasree/.gradle/caches/transforms-2/files-2.1/541f0c87ffd2967fb3d2d3d60c958762/AndroidManifest.xml:29:9-51
meta-data#com.google.android.gms.version
ADDED from [com.google.maps.android:android-maps-utils:0.5] /Users/thejasree/.gradle/caches/transforms-2/files-2.1/4d71ced357eae170d4620d8923c433a5/AndroidManifest.xml:8:9-10:69
MERGED from [com.google.android.gms:play-services-basement:16.0.1] /Users/thejasree/.gradle/caches/transforms-2/files-2.1/649a90a8e2ee3424de3e1e62a693297d/AndroidManifest.xml:23:9-25:69
MERGED from [com.google.android.gms:play-services-basement:16.0.1] /Users/thejasree/.gradle/caches/transforms-2/files-2.1/649a90a8e2ee3424de3e1e62a693297d/AndroidManifest.xml:23:9-25:69
	android:value
		ADDED from [com.google.maps.android:android-maps-utils:0.5] /Users/thejasree/.gradle/caches/transforms-2/files-2.1/4d71ced357eae170d4620d8923c433a5/AndroidManifest.xml:10:13-66
	android:name
		ADDED from [com.google.maps.android:android-maps-utils:0.5] /Users/thejasree/.gradle/caches/transforms-2/files-2.1/4d71ced357eae170d4620d8923c433a5/AndroidManifest.xml:9:13-58
activity#com.google.android.gms.common.api.GoogleApiActivity
ADDED from [com.google.android.gms:play-services-base:16.0.1] /Users/thejasree/.gradle/caches/transforms-2/files-2.1/5462cffb375830686c646d9de27a6700/AndroidManifest.xml:23:9-26:75
	android:exported
		ADDED from [com.google.android.gms:play-services-base:16.0.1] /Users/thejasree/.gradle/caches/transforms-2/files-2.1/5462cffb375830686c646d9de27a6700/AndroidManifest.xml:25:13-37
	android:theme
		ADDED from [com.google.android.gms:play-services-base:16.0.1] /Users/thejasree/.gradle/caches/transforms-2/files-2.1/5462cffb375830686c646d9de27a6700/AndroidManifest.xml:26:13-72
	android:name
		ADDED from [com.google.android.gms:play-services-base:16.0.1] /Users/thejasree/.gradle/caches/transforms-2/files-2.1/5462cffb375830686c646d9de27a6700/AndroidManifest.xml:24:13-79
meta-data#android.support.VERSION
ADDED from [com.android.support:support-v4:26.1.0] /Users/thejasree/.gradle/caches/transforms-2/files-2.1/dfef7f0696a405fe4d998f1b65788fed/AndroidManifest.xml:26:9-28:38
MERGED from [com.android.support:support-media-compat:26.1.0] /Users/thejasree/.gradle/caches/transforms-2/files-2.1/3577966440a326a216d52a210db77cd5/AndroidManifest.xml:26:9-28:38
MERGED from [com.android.support:support-media-compat:26.1.0] /Users/thejasree/.gradle/caches/transforms-2/files-2.1/3577966440a326a216d52a210db77cd5/AndroidManifest.xml:26:9-28:38
	android:value
		ADDED from [com.android.support:support-v4:26.1.0] /Users/thejasree/.gradle/caches/transforms-2/files-2.1/dfef7f0696a405fe4d998f1b65788fed/AndroidManifest.xml:28:13-35
	android:name
		ADDED from [com.android.support:support-v4:26.1.0] /Users/thejasree/.gradle/caches/transforms-2/files-2.1/dfef7f0696a405fe4d998f1b65788fed/AndroidManifest.xml:27:13-51
